{
    "KPlugin": {
        "Authors": [
            {
                "Email": "aleixpol@kde.org",
                "Name": "Aleix Pol",
                "Name[ar]": "Aleix Pol",
                "Name[az]": "Aleix Pol",
                "Name[ca@valencia]": "Aleix Pol",
                "Name[ca]": "Aleix Pol",
                "Name[cs]": "Aleix Pol",
                "Name[de]": "Aleix Pol",
                "Name[el]": "Aleix Pol",
                "Name[en_GB]": "Aleix Pol",
                "Name[eo]": "Aleix Pol",
                "Name[es]": "Aleix Pol",
                "Name[et]": "Aleix Pol",
                "Name[eu]": "Aleix Pol",
                "Name[fi]": "Aleix Pol",
                "Name[fr]": "Aleix Pol",
                "Name[gl]": "Aleix Pol",
                "Name[it]": "Aleix Pol",
                "Name[ka]": "ალის პოლი",
                "Name[ko]": "Aleix Pol",
                "Name[nl]": "Aleix Pol",
                "Name[nn]": "Aleix Pol",
                "Name[pl]": "Aleix Pol",
                "Name[pt]": "Aleix Pol",
                "Name[pt_BR]": "Aleix Pol",
                "Name[ru]": "Aleix Pol Gonzalez",
                "Name[sk]": "Aleix Pol",
                "Name[sl]": "Aleix Pol",
                "Name[sv]": "Aleix Pol",
                "Name[tr]": "Aleix Pol",
                "Name[uk]": "Aleix Pol",
                "Name[x-test]": "xxAleix Polxx",
                "Name[zh_CN]": "Aleix Pol"
            }
        ],
        "Category": "Version Control",
        "Description": "This plugin provides integration between the projects and their VCS infrastructure",
        "Description[ar]": "توفّر هذه الملحقة التّكامل بين مشاريعك ومركزيّة VCS",
        "Description[az]": "Bu qoşma, layihələr və onların VCS infrastrukturları arasında inteqrasiyanı təmin edir",
        "Description[ca@valencia]": "Este connector proporciona la integració entre els projectes i la seua infraestructura de VCS",
        "Description[ca]": "Aquest connector proporciona la integració entre els projectes i la seva infraestructura de VCS",
        "Description[de]": "Dieses Modul stellt eine Integration zwischen Projekten und ihrer VCS-Infrastruktur her.",
        "Description[el]": "Το πρόσθετο αυτό παρέχει ολοκλήρωση ανάμεσα στα έργα και της VCS υποδομής τους",
        "Description[en_GB]": "This plugin provides integration between the projects and their VCS infrastructure",
        "Description[eo]": "Ĉi tiu kromaĵo provizas integriĝon inter la projektoj kaj ilia VCS-infrastrukturo",
        "Description[es]": "Este complemento proporciona integración entre los proyectos y su infraestructura VCS",
        "Description[et]": "See plugin võimaldab lõimida projektid ja nende versioonihalduse infrastruktuuri",
        "Description[eu]": "Plugin honek proiektuen eta haien VCS azpiegituren arteko bateratzeahornitzen du",
        "Description[fr]": "Ce module fournit une intégration entre les projets et leur infrastructure de contrôle de version",
        "Description[gl]": "Este complemento fornece integración entre os proxectos e a súa infraestrutura VCS",
        "Description[it]": "Questa estensione fornisce integrazione tra i progetti e la loro infrastruttura VCS",
        "Description[ko]": "이 플러그인은 프로젝트와 버전 관리 시스템 통합을 제공합니다",
        "Description[nl]": "Deze plugin geeft integratie tussen de projecten en hun VCS-infrastructuur",
        "Description[pl]": "Wplata obsługę zarządzania wersjami do projektów",
        "Description[pt]": "Este 'plugin' oferece a integração entre os projectos e a sua infra-estrutura de controlo de versões",
        "Description[pt_BR]": "Este plugin fornece a integração entre os projetos e sua infraestrutura de VCS",
        "Description[ru]": "Это расширение обеспечивает интеграцию проектов с инфраструктурой VCS",
        "Description[sk]": "Tento plugin poskytuje integráciu medzi projektami a ich VCS infraštruktúrou",
        "Description[sl]": "Ta vstavek ponuja most med projekti in njihovo infrastrukturo nadzora različic",
        "Description[sv]": "Det här insticksprogrammet tillhandahåller integrering mellan projekten och deras VCS infrastruktur",
        "Description[tr]": "Bu eklenti, projeler ile VCS altyapıları arasında tümleştirme sağlar",
        "Description[uk]": "За допомогою цього додатка забезпечується інтеграція між проєктами та інфраструктурою системи керування версіями (VCS)",
        "Description[x-test]": "xxThis plugin provides integration between the projects and their VCS infrastructurexx",
        "Description[zh_CN]": "此插件提供工程和它们的代码管理系统的集成",
        "Description[zh_TW]": "此外掛程式提供專案與它們之間版本控制系統基礎間的整合",
        "Icon": "kdevelop",
        "Id": "kdevvcschangesviewplugin",
        "License": "GPL",
        "Name": "VCS Integration",
        "Name[ar]": "تكامل VCS",
        "Name[az]": "VCS inteqrasiyası",
        "Name[bg]": "Интеграция с VCS",
        "Name[bs]": "VCS Integracija",
        "Name[ca@valencia]": "Integració de VCS",
        "Name[ca]": "Integració de VCS",
        "Name[cs]": "Integrace VCS",
        "Name[da]": "VCS-integration",
        "Name[de]": "VCS-Integration",
        "Name[el]": "VCS ολοκλήρωση",
        "Name[en_GB]": "VCS Integration",
        "Name[eo]": "VCS-Integriĝo",
        "Name[es]": "Integración de VCS",
        "Name[et]": "Versioonihalduse lõimimine",
        "Name[eu]": "VCS bateratzea",
        "Name[fr]": "Intégration de VCS",
        "Name[gl]": "Integración con VCS",
        "Name[hu]": "VCS integráció",
        "Name[it]": "Integrazione VCS",
        "Name[ka]": "VCS-თან ინტეგრაცია",
        "Name[kk]": "Нұсқаларын қадағалау жүйесімен біріктіру ",
        "Name[ko]": "버전 관리 시스템 통합",
        "Name[nb]": "VCS-integrering",
        "Name[nds]": "VKS-Inbinnen",
        "Name[nl]": "VCS-integratie",
        "Name[pl]": "Dodanie systemu zarządzania wersjami",
        "Name[pt]": "Integração com o SCV",
        "Name[pt_BR]": "Integração com o VCS",
        "Name[ru]": "Интеграция VCS",
        "Name[sk]": "Integrácia VCS",
        "Name[sl]": "Vgradnja VCS",
        "Name[sv]": "Integrering av VCS",
        "Name[tr]": "Sürüm Denetimi Sistemi Tümleştirmesi",
        "Name[ug]": "VCS يۈرۈشلەشتۈرۈلۈشى",
        "Name[uk]": "Інтеграція з системами керування версіями",
        "Name[x-test]": "xxVCS Integrationxx",
        "Name[zh_CN]": "VCS 工程集成",
        "Name[zh_TW]": "版本控制系統整合"
    },
    "X-KDevelop-Category": "Global",
    "X-KDevelop-Mode": "GUI"
}
