{
    "KPlugin": {
        "Authors": [
            {
                "Email": "arrowd@FreeBSD.org",
                "Name": "Gleb Popov",
                "Name[ca@valencia]": "Gleb Popov",
                "Name[ca]": "Gleb Popov",
                "Name[de]": "Gleb Popov",
                "Name[en_GB]": "Gleb Popov",
                "Name[eo]": "Gleb Popov",
                "Name[es]": "Gleb Popov",
                "Name[eu]": "Gleb Popov",
                "Name[fr]": "Gleb Popov",
                "Name[it]": "Gleb Popov",
                "Name[nl]": "Gleb Popov",
                "Name[pl]": "Gleb Popov",
                "Name[pt]": "Gleb Popov",
                "Name[sl]": "Gleb Popov",
                "Name[sv]": "Gleb Popov",
                "Name[tr]": "Gleb Popov",
                "Name[uk]": "Gleb Popov",
                "Name[x-test]": "xxGleb Popovxx"
            }
        ],
        "Category": "Runtimes",
        "Description": "Exposes KDE Craft environment as a runtime",
        "Description[ca@valencia]": "Exposa l'entorn Craft de KDE com a entorn d'execució",
        "Description[ca]": "Exposa l'entorn Craft de KDE com a entorn d'execució",
        "Description[en_GB]": "Exposes KDE Craft environment as a runtime",
        "Description[eo]": "Malkovras KDE Craft-medion kiel rultempon",
        "Description[es]": "Expone el entorno Craft de KDE como biblioteca en tiempo de ejecución",
        "Description[eu]": "KDE «Craft» exekuzio-aldiko ingurunea gisa agertzen du",
        "Description[fr]": "Propose l'environnement KDE Craft comme environnement d'exécution ",
        "Description[it]": "Espone l'ambiente KDE Craft come runtime",
        "Description[nl]": "Omgeving van KDE Craft blootstellen als runtime",
        "Description[pl]": "Udostępnia środowisko KDE Craft jako bibliotekę uruchomieniową",
        "Description[pt]": "Expõe o ambiente do Craft no KDE como ambiente de execução",
        "Description[sl]": "Izpostavi izvajanje v okolju KDE Craft",
        "Description[sv]": "Exponerar KDE Craft-miljön som körtidsprogram",
        "Description[tr]": "KDE Craft ortamını bir çalışma zamanı olarak açığa çıkarır",
        "Description[uk]": "Розкриває середовище KDE Craft, як середовище виконання",
        "Description[x-test]": "xxExposes KDE Craft environment as a runtimexx",
        "Icon": "kdevelop",
        "Id": "kdevcraft",
        "License": "BSD3",
        "Name": "Craft runtime",
        "Name[ca@valencia]": "Entorn d'execució Craft",
        "Name[ca]": "Entorn d'execució Craft",
        "Name[en_GB]": "Craft runtime",
        "Name[eo]": "Metia rultempo",
        "Name[es]": "Biblioteca en tiempo de ejecución de Craft",
        "Name[eu]": "«Craft» exekuzio ingurunea",
        "Name[fr]": "Environnement d'exécution Craft",
        "Name[it]": "Runtime Craft",
        "Name[nl]": "Runtime van Craft ",
        "Name[pl]": "Biblioteka uruchomieniowa Craft",
        "Name[pt]": "Ambiente de execução do Craft",
        "Name[sl]": "izvajanje Craft",
        "Name[sv]": "Craft körtidsprogram",
        "Name[tr]": "Craft çalıştırma ortamı",
        "Name[uk]": "Середовище виконання Craft",
        "Name[x-test]": "xxCraft runtimexx",
        "Version": "0.1"
    },
    "X-KDevelop-Category": "Global",
    "X-KDevelop-Mode": "GUI"
}
